{
  "hints": [],
  "groups": [
    {
      "sourceType": "com.ust.product.cigar.view.common.properties.CommonViewProperties",
      "name": "com.ust.revenue.application.view",
      "type": "com.ust.product.cigar.view.common.properties.CommonViewProperties"
    },
    {
      "sourceType": "com.ust.product.cigar.service.properties.ServiceProperties",
      "name": "com.ust.revenue.service",
      "type": "com.ust.product.cigar.service.properties.ServiceProperties"
    },
    {
      "sourceType": "com.ust.product.cigar.view.carrier.properties.CarrierUIProperties",
      "name": "com.ust.revenue.view.carrier",
      "type": "com.ust.product.cigar.view.carrier.properties.CarrierUIProperties"
    },
    {
      "sourceType": "com.ust.product.cigar.view.consumer.properties.ConsumerUIProperties",
      "name": "com.ust.revenue.view.consumer",
      "type": "com.ust.product.cigar.view.consumer.properties.ConsumerUIProperties"
    },
    {
      "sourceType": "com.ust.product.cigar.view.vendor.properties.VendorUIProperties",
      "name": "com.ust.revenue.view.vendor",
      "type": "com.ust.product.cigar.view.vendor.properties.VendorUIProperties"
    },
    {
      "sourceType": "com.ust.product.cigar.view.wastemanagement.properties.WasteManagementUIProperties",
      "name": "com.ust.revenue.view.wastemanagement",
      "type": "com.ust.product.cigar.view.wastemanagement.properties.WasteManagementUIProperties"
    }
  ],
  "properties": [
    {
      "sourceType": "com.ust.product.cigar.view.common.properties.CommonViewProperties",
      "name": "com.ust.revenue.application.view.error-url",
      "type": "java.lang.String"
    },
    {
      "sourceType": "com.ust.product.cigar.view.common.properties.CommonViewProperties",
      "name": "com.ust.revenue.application.view.url-prefix",
      "type": "java.lang.String"
    },
    {
      "sourceType": "com.ust.product.cigar.service.properties.ServiceProperties",
      "name": "com.ust.revenue.service.project",
      "type": "com.ust.product.cigar.service.properties.ProjectProperties"
    },
    {
      "sourceType": "com.ust.product.cigar.view.carrier.properties.CarrierUIProperties",
      "name": "com.ust.revenue.view.carrier.navigation",
      "type": "com.ust.product.cigar.view.common.properties.NavigationProperties"
    },
    {
      "sourceType": "com.ust.product.cigar.view.consumer.properties.ConsumerUIProperties",
      "name": "com.ust.revenue.view.consumer.navigation",
      "type": "com.ust.product.cigar.view.common.properties.NavigationProperties"
    },
    {
      "sourceType": "com.ust.product.cigar.view.vendor.properties.VendorUIProperties",
      "name": "com.ust.revenue.view.vendor.navigation",
      "type": "com.ust.product.cigar.view.common.properties.NavigationProperties"
    },
    {
      "sourceType": "com.ust.product.cigar.view.wastemanagement.properties.WasteManagementUIProperties",
      "name": "com.ust.revenue.view.wastemanagement.navigation",
      "type": "com.ust.product.cigar.view.common.properties.NavigationProperties"
    }
  ]
}